application_id,starting_time,finishing_time,res_demand,res_demand_deviation,preemptible
1f2da020-476a-4e80-9651-8900d65cabb1,2021-01-08 09:00:00+00:00,2021-01-13 07:00:00+00:00,1.41,0.27,True
1a89f0a2-c54c-4db4-8283-b2a72e070a1f,2021-01-21 22:00:00+00:00,2021-01-25 11:00:00+00:00,3.5,1.53,False
6c85e8f6-4289-4fd9-9655-b29a66f4a8ac,2021-01-07 23:00:00+00:00,2021-01-12 01:00:00+00:00,2.04,1.8,False
5df351f0-ed91-481d-9c52-2f140c0c3036,2021-01-09 12:00:00+00:00,2021-01-19 06:00:00+00:00,2.63,0.93,False
65ff2a06-1c69-4301-be33-d988c9e95aa9,2021-01-11 21:00:00+00:00,2021-01-15 17:00:00+00:00,3.24,1.57,False
af8fa495-cdb0-4593-8917-a579d852f18b,2021-01-17 03:00:00+00:00,2021-01-27 02:00:00+00:00,1.77,0.01,False
142c04c6-5a17-437f-9bed-4c2c4cb3127a,2021-01-18 12:00:00+00:00,2021-01-25 13:00:00+00:00,1.1,0.33,False
8f5c62fa-0619-4885-87d5-68aaff597628,2021-01-03 11:00:00+00:00,2021-01-19 20:00:00+00:00,4.65,1.15,True
7bb375c4-1b51-4f6e-970c-a4ebc2ce1b7c,2021-01-01 03:00:00+00:00,2021-01-30 13:00:00+00:00,4.29,0.81,True
42d1d30c-6d9b-4571-aa46-3a02925d42dc,2021-01-14 02:00:00+00:00,2021-01-15 18:00:00+00:00,9.28,1.99,True
386bf6b5-aa01-44cd-af0d-4da1b6f12128,2021-01-12 16:00:00+00:00,2021-01-20 15:00:00+00:00,0.23,0.05,False
9e9b8dd7-7488-43f2-a7d2-bafb8015fdd1,2021-01-11 15:00:00+00:00,2021-01-14 14:00:00+00:00,4.27,0.35,False
cf2e7481-6c77-4110-86d7-c1312e181287,2021-01-07 04:00:00+00:00,2021-01-12 00:00:00+00:00,4.48,0.33,True
274f7b40-f008-4cf9-a1f3-f1157df31d85,2021-01-13 20:00:00+00:00,2021-01-26 02:00:00+00:00,3.47,0.24,False
7a32cec8-a0be-4272-a26b-a6ac61c6b08f,2021-01-03 20:00:00+00:00,2021-01-13 02:00:00+00:00,2.18,0.33,True
ec063fd3-6512-4615-8bb9-3e6d96ef0bc4,2021-01-24 20:00:00+00:00,2021-01-29 18:00:00+00:00,2.28,0.36,True
80264334-205b-45ee-ab06-29b9805a7464,2021-01-17 04:00:00+00:00,2021-01-27 14:00:00+00:00,2.51,0.07,True
6d7ef0eb-f493-4df9-afab-3cd6e237197f,2021-01-07 05:00:00+00:00,2021-01-10 20:00:00+00:00,1.55,1.13,True
f11d8881-3022-4a5d-9519-61cc17ef5e66,2021-01-03 16:00:00+00:00,2021-01-26 08:00:00+00:00,4.89,0.79,True
fdeba7bf-7aa9-4850-ae66-5e9cffc2d706,2021-01-05 13:00:00+00:00,2021-01-12 22:00:00+00:00,0.68,0.09,False
