instance_type_id,market_space,capacity,price,availability_start,availability_end
d260b3cc-93df-4d45-881b-9718bf8d1892,on_demand,12,2.5694,,
0b574ea3-0626-47c8-b91a-50dceb6237dc,on_demand,22,9.5108,,
65dcc231-6be5-4d3b-9fff-f52407535c2b,on_demand,1,0.2475,,
a55ed5a7-557b-4d06-a789-27993563216d,reserved,1,130.76,2021-01-01 23:00:00+00:00,2021-01-31 03:00:00+00:00
6a5d97e6-75f5-43b0-a26d-f1dc32cd062e,spot,10,2.7886,,
27b645ce-39f2-4d15-a1c9-084b9c2c7e98,on_demand,6,2.0675,,
2e79ae32-0a69-43dc-ad7b-e43e79f6b2e1,spot,24,7.9557,,
bc66e599-b679-4346-91f1-968116795ea7,spot,11,3.2506,,
46750855-abf5-4e58-be20-c420f1771208,reserved,2,455.8554,2021-01-01 15:00:00+00:00,2021-01-31 21:00:00+00:00
8aaf089a-0ea1-41df-9556-03d785ba9f5f,spot,12,4.4983,,
271c3dd4-1ceb-4e23-9029-571ff5f34e99,spot,9,2.388,,
2587b283-b241-42fc-9312-93ff4340da9c,reserved,10,975.4646,2021-01-01 21:00:00+00:00,2021-01-30 07:00:00+00:00
4e329aa4-2b46-436c-b7f8-48c9a4373933,on_demand,5,2.6206,,
a86846ce-cbcc-40fe-bdb6-74c8aa4660b1,on_demand,10,5.1572,,
77374500-0d1b-46d6-806f-4dc8a91905e6,spot,12,3.2201,,
add7294e-7e36-4c5d-a9a8-5ec6ba717e0c,on_demand,2,0.4971,,
bc0fc092-f481-490e-a9f9-54a3f0fcbcf2,spot,1,0.3665,,
ae53e769-5932-4d73-a551-868308b0e9e2,on_demand,27,5.9267,,
5a63cde4-d147-430b-a09a-5e2d686cfeb2,spot,9,3.126,,
c161da71-8641-4fb3-876b-65bdcafff386,reserved,6,1381.449,2021-01-01 18:00:00+00:00,2021-01-30 12:00:00+00:00
5085e9f3-8cb9-4209-af57-56a4b4f7e70c,spot,13,1.0343,,
77c4c146-5122-4805-b5c0-33548b41d9cb,spot,3,0.4685,,
fa89ef0a-d911-45ea-81b8-c4ffe70f7b4c,reserved,15,1536.8834,2021-01-01 17:00:00+00:00,2021-01-30 10:00:00+00:00
379fddcc-d4e9-44c3-8733-aa6b6235f449,reserved,2,276.2276,2020-12-31 20:00:00+00:00,2021-01-31 13:00:00+00:00
330ec897-bace-42f2-8a07-33ca65fffe66,on_demand,8,2.5641,,
ffd43723-dc48-49dd-a482-6d3b098f73bb,on_demand,4,1.7473,,
662d7b34-9304-4136-afc3-793733be6164,reserved,11,2512.497,2021-01-01 23:00:00+00:00,2021-01-30 17:00:00+00:00
45cef311-4263-42b1-9cc4-b999e081e670,spot,13,3.97,,
4c75f84d-2105-4576-aa6a-6a3f1ce82fc2,on_demand,4,0.8009,,
72fc91cf-9f13-458e-857d-8defe7400305,spot,8,1.3704,,
2f4715c5-3669-4724-865a-40184dc40c6f,reserved,9,939.7086,2021-01-01 16:00:00+00:00,2021-01-31 05:00:00+00:00
ee3ab461-e4bf-47af-992b-a2ed2c3ad7d9,on_demand,12,5.4124,,
b56b2408-7de0-48e9-9c52-e44568a5af22,on_demand,12,4.9487,,
85c1a14f-8618-4c6e-ba5e-d30e8cb04b93,spot,7,2.7456,,
bb003c4c-45e7-4fc9-b432-21a3258eb777,on_demand,1,0.4907,,
71be7391-7549-4d55-b38e-5ffd36930466,on_demand,12,3.4429,,
90bf8ad1-86b4-407b-aee6-96944218eaae,reserved,11,2001.2706,2021-01-01 02:00:00+00:00,2021-01-30 20:00:00+00:00
32a06b68-7ee4-47cd-884e-459345682cb2,on_demand,6,2.0595,,
58c3b767-8b94-469b-9fb4-4c478ebfb290,reserved,1,88.679,2020-12-31 18:00:00+00:00,2021-01-30 08:00:00+00:00
24e5f68b-8372-4185-8838-c15338555a9f,reserved,12,1059.9884,2021-01-01 16:00:00+00:00,2021-01-31 02:00:00+00:00
0d2fb6f5-0dd3-4be7-92ba-a77b425afc6c,reserved,11,2398.6844,2021-01-01 06:00:00+00:00,2021-01-31 10:00:00+00:00
1f8b97bf-3ff6-4586-a21e-4506f55f43dd,reserved,11,1893.4928,2021-01-01 02:00:00+00:00,2021-01-30 18:00:00+00:00
0db152e0-5b98-4367-bd18-36321ac01f5a,spot,48,21.9707,,
01158db6-0b71-4e0f-b0a8-2efd18112dd4,on_demand,12,3.7988,,
3dc633d1-0a19-4b2d-a083-89ec91b227c7,reserved,3,586.656,2020-12-31 16:00:00+00:00,2021-01-30 16:00:00+00:00
8036705d-2e70-4805-9787-40bbf0abf2d9,reserved,7,1352.0187,2021-01-01 11:00:00+00:00,2021-01-30 16:00:00+00:00
07711938-13c4-41ad-9995-d427d62a6e60,spot,15,5.073,,
7312ee08-a4bf-444c-96bf-22148df6317f,spot,2,0.2703,,
c07597d3-5df3-47ec-999b-a82871b4f2c9,on_demand,15,7.3875,,
7370c748-0043-4963-9bf8-f0f361ec3dd8,on_demand,2,0.9845,,
7403e142-2421-4e6a-8d62-ad64f44d6d37,spot,2,0.2952,,
f62fd71b-ad55-4a5d-836d-e0cdd011a6ee,on_demand,5,0.9248,,
697f5fe3-608b-40db-9b05-1cdc3f0a1e0a,spot,12,1.6027,,
68fc6e26-1fe2-413a-a8ed-5d5cbffe26c0,spot,1,0.3027,,
23dca53d-9be3-45ee-86d2-9cf1dc9159a5,on_demand,15,7.1604,,
1225b8f6-64a7-414c-adf5-ed48a0bb92d7,spot,2,0.3226,,
2c3072fe-2fe0-45f4-b872-257ca31b6a94,on_demand,54,10.0682,,
8e4c118c-a56b-499c-a208-d6a038063dcf,reserved,13,1608.3135,2020-12-31 05:00:00+00:00,2021-01-30 08:00:00+00:00
44735269-8889-4715-b1d8-290d91d1fe7f,reserved,29,4715.7462,2020-12-31 20:00:00+00:00,2021-01-31 14:00:00+00:00
d5a597f6-1090-48f9-b57c-ce9675255d1a,reserved,3,332.6848,2020-12-31 09:00:00+00:00,2021-01-31 17:00:00+00:00
bc19e3b7-67ea-4a8b-aecf-c06ba846fd57,spot,7,1.6337,,
a6030045-c7ad-475f-b4ce-eb16254962d0,on_demand,15,6.4093,,
1ffb7a1b-5e4d-406a-9944-52c254b4c17e,on_demand,12,5.8367,,
9eb16b47-26fe-4c34-af15-4192ca12b546,on_demand,12,5.5655,,
f1275e15-abef-4300-903e-e6a82fc5852c,on_demand,15,6.3651,,
f3ea732b-35df-4425-b82c-a05d1204ca5e,on_demand,5,2.2192,,
a1618dea-c679-4eb8-a833-b1ee93e77173,reserved,3,666.2322,2020-12-31 14:00:00+00:00,2021-01-30 12:00:00+00:00
f0f63410-3e12-4d37-a152-651690abd222,on_demand,8,3.4978,,
3e69e8fb-03e9-4ff4-aa91-debb51599819,spot,6,2.0614,,
94b38d74-c713-470c-ad80-3fe94be0db75,on_demand,21,4.7802,,
32078af1-874b-41b5-9a39-742d594f698d,spot,2,0.5863,,
15a24d56-a363-4f27-8199-77af57f12896,on_demand,8,3.5519,,
8f2743fa-7e04-46c4-af88-00da74f6a100,spot,3,0.5407,,
50f02396-c298-48bb-bf37-6ab540d14a16,reserved,2,225.92,2021-01-01 02:00:00+00:00,2021-01-30 12:00:00+00:00
9db8f47a-1660-45c6-8b97-99af6b0c28d2,on_demand,9,2.3912,,
0fb63aee-3682-43aa-8eb2-bf3da0eaf69d,spot,3,0.7815,,
66ed25f8-1552-476d-8d62-4533768e8ce1,reserved,9,1135.9188,2021-01-01 14:00:00+00:00,2021-01-30 02:00:00+00:00
e43bd012-ac02-42bc-881c-79b83d9fc0ed,spot,9,2.6741,,
1d1d9211-6001-4034-88b8-c72a9c36a995,reserved,1,196.47,2021-01-01 06:00:00+00:00,2021-01-30 18:00:00+00:00
c3825c30-32d7-4afc-8364-3781e3a8b109,reserved,15,1643.76,2021-01-01 04:00:00+00:00,2021-01-31 04:00:00+00:00
69044cb7-1caf-48c2-9fce-9f0311b1e60f,spot,5,1.3093,,
cf06ad00-70a5-4af2-a8f9-654f41acf707,spot,10,2.6118,,
7d329a85-e36b-49b1-97a2-7a6f65d29cac,spot,3,0.6998,,
af024055-3008-4b38-9857-64a1bce847fb,spot,11,2.7408,,
a27388f6-2b35-4502-9bf6-e27d0c376563,on_demand,5,0.8914,,
2bbe600f-9c3a-499b-b0f4-cc4b44f82a8d,spot,4,1.4189,,
a1c5d819-66ea-4af3-a93a-fa1596607010,reserved,10,2519.3945,2021-01-01 11:00:00+00:00,2021-01-30 22:00:00+00:00
70cfc56a-85ac-4977-ac75-0ae9e6d18f53,spot,14,3.2561,,
58b5154d-d724-44cf-9e09-cbd28eea1a95,reserved,2,383.7559,2020-12-31 20:00:00+00:00,2021-01-31 13:00:00+00:00
5b43b002-a766-44ad-81e4-8696674754d3,reserved,1,212.908,2021-01-02 00:00:00+00:00,2021-01-30 08:00:00+00:00
3128bfa4-b45b-4513-8fed-4eedb357ed13,reserved,6,738.037,2020-12-31 20:00:00+00:00,2021-01-31 10:00:00+00:00
36139fae-8804-4a54-a9a9-f38ff90fea19,spot,6,0.8995,,
90700d79-adba-49bb-9b0b-a73cf8e0795a,spot,10,2.5892,,
a22a1837-45dc-4d1d-b67d-bca32ca7cef4,reserved,25,2536.272,2020-12-31 21:00:00+00:00,2021-01-30 21:00:00+00:00
56568770-0a90-4a00-ac3f-f0bbaf912ef8,on_demand,10,1.8768,,
b4c75830-7329-435f-94c9-8e2436ab2686,on_demand,8,3.1596,,
6811549a-5701-4a45-810c-a0352ae9ad68,spot,13,1.7658,,
1407ea05-6b0c-404e-95ca-4b557bf2f25d,spot,9,1.5178,,
96dd5414-430a-483d-a4cf-212098cd75a6,reserved,3,422.4372,2021-01-01 00:00:00+00:00,2021-01-31 12:00:00+00:00
b1ba9054-46b1-4fe0-8160-599f94d05921,on_demand,12,5.0616,,
7b00e1d3-6f5c-47c0-9387-d7effd5c4c2b,on_demand,2,0.626,,
9268b12d-71f0-4084-97f6-19277dacc425,spot,13,5.1405,,
84b41cc5-be14-481c-b395-b56c142e0f24,spot,1,0.357,,
43bf1207-4dd3-4e76-8f76-efd366101bbf,spot,8,2.7595,,
57688a54-0313-4c9d-acb2-9c5e30fc6f01,reserved,15,3272.8594,2020-12-31 20:00:00+00:00,2021-01-30 18:00:00+00:00
e0e1707a-4237-4074-b14b-3d5f83ac3a20,reserved,12,2648.0505,2020-12-31 23:00:00+00:00,2021-01-30 08:00:00+00:00
2549da34-0466-4fd5-872c-ffe2b41428e7,spot,9,1.7993,,
c4937552-4442-401c-860f-b7f3f8981430,on_demand,14,2.5472,,
ee5783c1-c2d2-4424-9adc-a21e7d4befc2,spot,12,4.1184,,
7a8407ed-c28f-4626-a498-12fa01c329cf,spot,29,3.6158,,
a0bf4b20-ec28-4abf-9ac2-ef96894070f5,reserved,55,7965.038,2021-01-01 22:00:00+00:00,2021-01-30 20:00:00+00:00
11f23b68-f3bd-4eb1-a184-541e5b8d5d29,on_demand,10,2.0813,,
ab17f280-e1a8-41cd-ac1f-0fddd94b57b9,spot,15,5.2483,,
5f015245-1c6f-436b-af83-fb87cdf6290f,spot,6,1.2723,,
77028671-5211-4661-b742-1d838bc0d76d,spot,15,4.3132,,
6536c377-0b10-422f-98a7-b1cdff3258a2,on_demand,13,4.6593,,
000802b5-2781-46fd-88a3-617811016909,spot,15,3.3852,,
fec3495a-5268-4a17-a583-41474c3af6f6,reserved,14,1588.4867,2021-01-01 16:00:00+00:00,2021-01-31 15:00:00+00:00
04adf097-54b9-4fbb-a45d-4f5b6cac5864,reserved,8,1616.031,2021-01-01 07:00:00+00:00,2021-01-30 21:00:00+00:00
c9576061-729a-458a-86d6-6869a610317d,reserved,15,3521.9516,2020-12-31 14:00:00+00:00,2021-01-30 00:00:00+00:00
161362cd-9620-478f-a769-67a6c30970fb,on_demand,10,3.8101,,
b42974f4-5453-4097-b5d7-0878a97f5adb,reserved,3,585.06,2021-01-01 05:00:00+00:00,2021-01-31 20:00:00+00:00
c69d48e5-8a29-4496-b7b2-af75f6a15b67,on_demand,13,2.3864,,
65c93e06-4856-4c10-a0c7-0e6d00ce309e,on_demand,5,1.9198,,
410df6f3-bd73-4618-94fc-d1ab71374513,reserved,2,184.287,2021-01-01 16:00:00+00:00,2021-01-31 01:00:00+00:00
2f2da2f7-f3d8-4be9-8962-3a7c9a132db0,on_demand,4,1.1292,,
192fb064-7c76-427c-ad8c-792c5c88873e,spot,7,0.761,,
58b0b8e4-2bb6-4e68-a248-b5bade85b0a1,spot,15,2.0075,,
1d5ea66a-f29c-45a0-8ebf-87b196ec7edb,on_demand,12,5.7422,,
7db6139d-dafc-4d54-a55e-1dde55c11769,spot,6,1.405,,
5d5e6160-730d-4299-ab58-2725ce0beec0,spot,14,2.3349,,
225f2e8c-34be-4122-97b7-7a0c66845881,spot,14,2.9611,,
14dd4dd7-f6f1-4379-b83a-c1fe03b2a992,on_demand,4,0.9881,,
6fe33dd5-b5cb-4ac5-a965-95df7a790bfa,spot,51,20.1348,,
5ceb0960-d357-452a-b427-9ae86fb8d0d7,on_demand,4,1.253,,
acd37702-b3d2-4632-91db-1fd44dbc1aa9,on_demand,5,0.9519,,
f17f59aa-3459-4df6-8889-8b877938c4b6,reserved,15,2774.808,2021-01-01 05:00:00+00:00,2021-01-31 05:00:00+00:00
277d34e3-84c2-4dd6-bffc-9291787a56ae,spot,11,2.1145,,
9f505611-27f8-45bf-8bcc-d4ae533a9f6a,spot,8,1.6208,,
66f07fd5-aabc-4165-bd48-2772e74f05bb,spot,7,1.4774,,
50e1a272-46cf-4ccc-87e2-819ca53c7b77,reserved,8,1179.2256,2020-12-31 18:00:00+00:00,2021-01-31 23:00:00+00:00
757626d0-3fa3-4035-aea3-bcd313f6b4f9,reserved,5,829.7136,2021-01-01 06:00:00+00:00,2021-01-31 20:00:00+00:00
c263d01b-becc-4208-8f09-2f3dac65b969,spot,3,0.5157,,
532ead55-2d8a-4a83-8ef6-b88b498df99d,on_demand,16,5.3949,,
9991673b-4707-42ce-938b-89239e53e9bb,on_demand,5,1.3872,,
04e473c2-b79f-4b90-af26-9aa568c90c17,reserved,5,821.877,2021-01-01 07:00:00+00:00,2021-01-31 22:00:00+00:00
3bbb7518-9974-4042-8ae2-fa1bd8317f1a,reserved,15,2700.4921,2021-01-01 20:00:00+00:00,2021-01-31 19:00:00+00:00
8c07e962-fc85-489b-b932-16aacc472495,spot,3,0.473,,
e90547c3-23e6-46c6-9ea6-fe545cde51a5,reserved,13,1160.1466,2020-12-31 16:00:00+00:00,2021-01-30 23:00:00+00:00
f0fadbeb-5977-4077-872c-0ab927fd6e8f,reserved,14,2903.2584,2021-01-01 09:00:00+00:00,2021-01-31 21:00:00+00:00
adc88947-78f2-466d-9dd4-064d5ae4e405,on_demand,14,7.299,,
729367f2-bb80-47d5-9c19-ce7f3a87ae73,spot,14,5.1107,,
3b22760c-7050-44a7-b763-e9073d170a5c,spot,6,1.9565,,
e60a332d-156b-447c-a0cb-743f2aeba2e5,spot,6,2.439,,
64883bd9-011f-472a-a177-ac71a8b004cc,reserved,3,671.346,2020-12-31 12:00:00+00:00,2021-01-31 23:00:00+00:00
ee279956-3b9d-4e2c-a4bd-1f5a8488c9dc,reserved,14,1658.434,2020-12-31 22:00:00+00:00,2021-01-31 00:00:00+00:00
461aca8b-6ddc-40eb-9c4a-0ebe0fa53296,on_demand,1,0.384,,
56fa9837-9994-4ee6-a2e4-a7033d3884e3,reserved,11,2844.3064,2021-01-01 09:00:00+00:00,2021-01-31 13:00:00+00:00
053eb2ce-2b86-4303-99b3-7f540306651a,reserved,15,3101.8869,2020-12-31 16:00:00+00:00,2021-01-30 19:00:00+00:00
fd5f7553-07e1-4fc1-a293-ce643ca8226a,spot,5,1.569,,
defdfdfa-3b0c-43a6-90f3-4cf14a27a154,spot,15,4.9601,,
67175502-e404-4db9-9164-5acddb4d1b52,spot,12,2.8762,,
a12c9a3a-f604-4ee2-848a-3762af6341d1,reserved,3,330.3329,2021-01-01 04:00:00+00:00,2021-01-30 21:00:00+00:00
ec92a426-4d89-4d79-9cd4-1010a53d06ea,spot,18,3.2028,,
f1968894-8d29-4e6e-a96a-897276c0a7b4,on_demand,7,1.4978,,
c2f8876e-4fa6-416e-ac87-63131fc8c244,spot,13,1.7417,,
a50ce53e-29db-4f88-8cc7-6ce87fdc15c8,reserved,6,918.4369,2021-01-01 04:00:00+00:00,2021-01-30 05:00:00+00:00
5d33e6ed-7256-42cb-aa8b-7cdb3f3c35e9,reserved,15,3433.3608,2020-12-31 17:00:00+00:00,2021-01-31 04:00:00+00:00
f0a1e298-c726-42da-add3-186181717424,reserved,3,400.7313,2020-12-31 16:00:00+00:00,2021-01-31 01:00:00+00:00
f36df5c0-571a-4a3d-afb6-6db5c3045ba7,on_demand,8,3.594,,
574fe7a3-a039-4037-836b-95ac6d463323,on_demand,22,9.7905,,
d979f5db-b2f9-4052-9d60-f08811f17c2c,spot,9,3.0696,,
7477d54b-b472-4aef-8838-5c51f9000c4a,spot,8,2.0072,,
d3a48e3e-6d5f-449e-9406-8c04e4427803,on_demand,11,2.2627,,
b684213d-1241-4389-9c24-5c18f22d8c09,spot,2,0.3378,,
b31c19ac-15eb-4ab3-8f8c-b978dad7b4a5,spot,15,5.6622,,
30752361-100b-4308-aaf3-00817ec16b51,spot,15,1.6247,,
ae7fc4a2-5738-4b66-b650-2cd131dfe742,on_demand,8,3.2715,,
7d19d313-3962-49cb-b5fa-f83e79856451,spot,2,0.3476,,
b3ee8341-544b-4baa-943c-af2a787c5cde,on_demand,6,2.8551,,
d5072e86-c038-4b9f-bbe6-95eeb84fb20b,reserved,2,334.368,2021-01-01 11:00:00+00:00,2021-01-30 03:00:00+00:00
ecd700ce-cf13-4d15-a37a-fa8a5bd48386,reserved,4,728.4164,2020-12-31 17:00:00+00:00,2021-01-30 21:00:00+00:00
5754131a-4937-4a6f-abf8-69f4d3dc786e,reserved,15,3137.568,2021-01-01 02:00:00+00:00,2021-01-30 02:00:00+00:00
3376ff8e-a849-4932-b831-6759cfd2199a,on_demand,9,3.905,,
5a935d97-a9b7-45d0-b19c-361dd5040d5c,reserved,14,2039.9164,2021-01-01 01:00:00+00:00,2021-01-30 11:00:00+00:00
e2f0c0b4-5362-48e9-8dfa-1afb91230fdc,reserved,13,3331.2096,2020-12-31 07:00:00+00:00,2021-01-31 15:00:00+00:00
5edac407-9404-435d-9970-d7390ef156ea,on_demand,5,1.8078,,
0d5b596f-7f54-473a-9fb1-90bda9e11ca4,spot,5,1.7798,,
eccccfe5-bcc2-4c9b-8c52-f7f8048791a0,spot,13,0.847,,
ff8260a0-d9ed-4251-9eb4-e1e124fb0440,reserved,10,1859.916,2020-12-31 16:00:00+00:00,2021-01-31 12:00:00+00:00
0f7f39e7-7063-43cc-9282-95b5f65b7076,on_demand,51,9.3902,,
746a353f-9649-4859-8b3f-68810a4dc9b1,reserved,10,1030.3734,2020-12-31 21:00:00+00:00,2021-01-30 15:00:00+00:00
74af9f2a-f8bc-44c8-b799-ac41692eb69e,reserved,8,1239.1006,2021-01-01 08:00:00+00:00,2021-01-30 18:00:00+00:00
08d1f636-a515-40cb-806e-9e95b2cdd82a,spot,4,0.5911,,
d8656c6b-d563-437f-a28a-9ef9e8a0c5c5,spot,19,4.787,,
12d0a9c7-755d-4015-85d5-bcf45d95657a,on_demand,9,3.6992,,
2575a7da-2dda-4e5d-b4d6-3b6708be9a40,spot,8,1.1589,,
063a163f-e61b-4233-b2f6-bd99a7c47bd8,on_demand,15,6.0405,,
59e980fa-436a-4a3a-ba8c-ac37aa22c70b,spot,9,4.0888,,
f893e482-35dc-4656-9f01-69806c192617,on_demand,10,4.4103,,
d42d7e5d-6a5e-4bce-938b-b82e3066e5da,reserved,7,1321.7355,2021-01-01 12:00:00+00:00,2021-01-30 17:00:00+00:00
d76977ad-6a8c-45c8-9ca5-342febfdb5d4,spot,15,2.894,,
ae5cc2be-edde-418c-8539-5ad524750ed6,reserved,3,336.9562,2021-01-01 00:00:00+00:00,2021-01-30 11:00:00+00:00
f5963864-1608-44ec-af87-634cf58ae615,reserved,8,853.4592,2020-12-31 23:00:00+00:00,2021-01-30 07:00:00+00:00
230edd3c-c666-480a-81cc-d3b8a2c6e8f7,reserved,5,1338.1162,2020-12-31 23:00:00+00:00,2021-01-31 06:00:00+00:00
c80de38d-498d-45ec-a590-9264993d6f76,on_demand,1,0.4961,,
0811bc96-f1e3-402b-b6a5-74165156e28b,reserved,15,1712.2304,2020-12-31 08:00:00+00:00,2021-01-30 15:00:00+00:00
10de42b9-5e23-4037-a7fc-66bbbaee575d,spot,11,2.7185,,
e38cfbfe-1ed4-45c0-9300-07f2570c0335,spot,54,18.9569,,
6047a7df-c80f-487d-ae45-985ce6b20c6e,spot,10,1.9451,,
5a690db6-a560-4a4c-9f35-b05a3f585558,on_demand,11,2.266,,
52b863d6-ed5a-4769-a44e-0aa00dea9c38,spot,27,4.7626,,
3554dcb6-23a5-4910-84b9-61f9dc81bd89,reserved,13,1103.1762,2020-12-31 16:00:00+00:00,2021-01-30 13:00:00+00:00
fbc0302d-af98-4f89-be72-eb74d1317fb5,spot,22,8.7439,,
88a197ab-754a-4530-a04b-ea122ce0b6c4,on_demand,9,2.6685,,
0f517e8e-52cc-4dea-93a9-3c466e13f45a,on_demand,11,1.9546,,
a7019d09-83ea-437e-90cb-bc6f52201b17,reserved,12,1691.0784,2020-12-31 23:00:00+00:00,2021-01-30 07:00:00+00:00
110ee91e-6234-41ba-ac58-af834b8ed112,on_demand,4,1.5617,,
e4fee715-8a0e-4d61-bd4a-b0a5be56ebce,reserved,6,920.6316,2021-01-01 17:00:00+00:00,2021-01-31 11:00:00+00:00
fdb9e964-4ddb-49eb-8a39-61c57037f747,on_demand,5,2.5358,,
5d931624-a77f-484d-8f93-173008315d68,spot,12,0.6963,,
5378713d-7002-4b00-91a7-c14ece661336,spot,7,0.505,,
d915342e-b25c-4a0c-8e7b-fcbd93adf2a4,reserved,12,2400.6483,2021-01-01 07:00:00+00:00,2021-01-31 20:00:00+00:00
d4421170-ea28-4f99-aefe-9b9e4b5dd075,reserved,7,710.2396,2021-01-01 12:00:00+00:00,2021-01-30 10:00:00+00:00
ecc0ee38-9590-4c5e-a28e-1c6a43e37c43,spot,6,0.9413,,
520ac934-eb4a-4da7-9f16-aa1d902908e4,on_demand,10,4.7264,,
706e7174-14d0-4844-843b-abee5f42bc35,on_demand,6,2.4605,,
1018e4a9-ad12-44b1-8037-39167821cb43,spot,5,0.6814,,
fc356a02-f3f3-4722-abbf-7f038a680b8c,spot,13,5.0335,,
e708373e-0d13-41df-9f5c-c2d3289731d5,spot,4,1.1423,,
cb33fa78-956d-4187-9650-4122d074d54a,on_demand,6,2.4251,,
9bfc569b-2d19-49e4-a51b-17d15f8c175c,spot,15,4.3991,,
1f133cbf-454e-4fad-95e0-fd04d960c27f,on_demand,2,0.6162,,
c1205ff1-55fb-4348-91e7-b05eeda5ee5f,spot,8,2.106,,
44295f02-d161-4e8d-af84-0e9593f5c1fd,spot,15,4.161,,
2286b70e-0db6-4f40-ab7f-9f44869cd503,on_demand,14,2.8721,,
48b61cfa-a765-49c5-bd32-422c3c18fa3b,on_demand,14,2.5494,,
8cb230bb-f560-4972-81ff-135ddf760134,reserved,8,1086.3762,2020-12-31 17:00:00+00:00,2021-01-30 04:00:00+00:00
f9be0ef8-dab6-41f1-ab0f-63e5181d3535,reserved,7,1215.9502,2020-12-31 08:00:00+00:00,2021-01-30 01:00:00+00:00
0d744634-a3f4-4193-b537-f554b3c77e33,on_demand,14,3.6469,,
aace9c9f-dfb3-40f9-97d8-02af4250e1ad,reserved,5,913.8408,2020-12-31 07:00:00+00:00,2021-01-31 16:00:00+00:00
bb1119a8-8d7c-4fbc-8fe7-a4d192951a2d,on_demand,4,0.9522,,
c0033171-5349-4265-99c9-bddbd749639d,spot,1,0.2059,,
71474a1e-d2a6-4045-9519-dfd3f3781545,on_demand,1,0.3581,,
d0a15f61-fa57-4dca-a421-b427a5bc967c,on_demand,1,0.5124,,
e44de605-cc9c-4d11-9529-7d271ff82a09,on_demand,7,2.1862,,
97c7ac5e-1746-430f-a0a1-70c34a9b7475,reserved,3,463.9635,2020-12-31 20:00:00+00:00,2021-01-30 21:00:00+00:00
27008a18-b5fb-44a4-894c-3698145f074d,reserved,10,1170.6506,2021-01-01 12:00:00+00:00,2021-01-30 23:00:00+00:00
a765b6e2-caf4-43e8-a72a-75b90ac700dd,on_demand,10,3.8235,,
d46691e4-3c4e-44a0-a7cb-8557fc415c83,on_demand,3,1.2902,,
575f8523-77c9-4d08-be58-8300abbadf75,on_demand,11,2.4457,,
71fa379b-6c2b-4ffb-8c71-64969ede6084,on_demand,11,2.03,,
261b59b8-8027-4305-adcb-d267a065f687,on_demand,3,0.5732,,
0e2e429f-d163-453c-9830-4351318f3aae,spot,20,5.4405,,
24bee99a-650e-450f-b346-91f4bceb0dd9,on_demand,1,0.2903,,
7bd6db45-9770-49ad-95b9-745f2b58911d,on_demand,12,2.4807,,
c6bb8eed-6fd1-45f5-90ec-d8d469ed4e58,spot,7,1.4354,,
d608ad68-593d-4740-8f0d-12173ccb6bca,on_demand,10,1.8062,,
ea4dc09b-7fb7-49e7-a13e-bc252cf81ba2,spot,15,6.3545,,
ec92df1c-dae3-473e-8e97-48faf85efbeb,reserved,2,441.5615,2020-12-31 18:00:00+00:00,2021-01-31 19:00:00+00:00
6a36cdb4-3c0c-4215-ad6e-1338bba3bddd,reserved,14,1926.368,2020-12-31 08:00:00+00:00,2021-01-31 04:00:00+00:00
a84da8b6-83f3-49e6-b069-ea5b9e705217,reserved,15,1982.005,2021-01-01 10:00:00+00:00,2021-01-31 15:00:00+00:00
5f1922a9-a9af-426e-a4b2-e6c1835f9195,spot,2,0.2935,,
6d10a2bd-e205-4d6c-ad7d-7329ad64d624,spot,6,2.5022,,
b878ca8c-7224-409b-931a-db3b9f95462f,reserved,5,1093.5012,2020-12-31 17:00:00+00:00,2021-01-30 23:00:00+00:00
0158a461-90eb-4090-84e4-3c36d9d881d7,on_demand,12,5.1434,,
04c64e94-57aa-4e57-ae25-cee4bfcc4311,spot,2,0.4531,,
aa31680c-e2dc-41bc-a367-c88463d4e2d6,on_demand,6,2.9222,,
aa845839-ae55-4476-b446-0c9e17eaf998,on_demand,3,0.8545,,
1c581ecd-7f76-4b4f-8265-eaeadb0c7443,spot,14,2.1699,,
612b75c0-ae7c-43ca-bc7b-7a42ab15ea09,reserved,13,2138.0504,2021-01-01 18:00:00+00:00,2021-01-31 04:00:00+00:00
eb03d1a3-c523-44a4-8f54-5575c3c40741,reserved,12,2746.9741,2021-01-02 00:00:00+00:00,2021-01-30 17:00:00+00:00
17fefa24-3653-4cde-911f-22733525cb3a,spot,15,3.6085,,
4a8283b3-ad17-4297-bec0-1a18be4bbeb2,reserved,3,417.7536,2021-01-01 16:00:00+00:00,2021-01-31 00:00:00+00:00
a2c1bde9-f073-4945-a466-9aa96275738c,on_demand,3,1.3658,,
08d2fbb5-e704-4ff1-b89c-07e693552221,spot,9,2.4824,,
3d7f8021-5e21-4f77-ad1b-8ddd708995f0,spot,5,0.7428,,
206fdeb6-6958-462a-b86b-8d1eef1a3763,reserved,9,1567.673,2021-01-01 00:00:00+00:00,2021-01-30 10:00:00+00:00
1f797b41-5cf8-4307-866a-8afb952b9973,reserved,1,108.993,2020-12-31 20:00:00+00:00,2021-01-30 05:00:00+00:00
80373c78-ea5e-46b2-8fae-8f0f6490ee6e,spot,14,1.5197,,
226e70e5-4dd0-4a5e-ac8a-8ad8a0fd6c00,spot,10,3.3584,,
8ff8a6d2-e704-4606-aab6-8c0b65a80a05,reserved,10,2244.744,2021-01-01 06:00:00+00:00,2021-01-31 06:00:00+00:00
53af350f-3882-4cd9-a949-a86c71472d66,on_demand,8,3.5851,,
3eb72443-5ba5-4a68-b23c-6149826381ad,on_demand,24,12.1234,,
c6663086-d3f2-4d50-8c7c-6d7a8ac14eca,spot,13,5.3976,,
00436f63-4bd2-4fc1-94ba-edbb80d548cb,on_demand,5,1.0248,,
538db553-fd2a-4a05-9d1f-d5f2301e355d,spot,12,4.123,,
7d5e93e9-7c05-4352-970e-f12bd6843dbb,spot,86,24.0274,,
7f2ac6a6-c10e-4c5c-a037-4e4d80eb7b78,spot,4,0.6631,,
9c58c684-5acb-4891-9cba-ed80339fb307,spot,2,0.5911,,
1d3b969d-213d-44aa-8589-1a79d6298850,on_demand,14,6.5864,,
428fd481-e192-4c1b-a935-ba6e06bf1115,reserved,10,886.2418,2020-12-31 15:00:00+00:00,2021-01-30 01:00:00+00:00
512748d1-d050-45ba-b8bf-6fa48fd2ddea,on_demand,4,1.8563,,
d9625ac9-d102-49e6-8af8-3f717acf2c91,spot,2,0.4574,,
9624316d-f2df-494b-9925-aa173b82b0f2,reserved,8,1771.0148,2020-12-31 04:00:00+00:00,2021-01-31 03:00:00+00:00
98b41faf-f8c7-4b2f-bc3a-fd452177e919,spot,12,2.7177,,
2523276d-b282-4eb2-93b2-dd117368bd02,spot,5,0.4018,,
0667da8a-0165-44ba-8028-08b03f3dc7fc,reserved,1,183.6786,2021-01-01 14:00:00+00:00,2021-01-31 01:00:00+00:00
7aa0d909-c480-45c9-9834-6f05d6ee4d76,on_demand,13,5.2611,,
45cccdd5-6ba9-4dcc-9523-e7585b7b65c8,on_demand,11,5.4395,,
66d9ed92-080d-4fc6-914f-6c42d08715b2,on_demand,8,3.5753,,
0ffc0a80-146f-4684-9d3d-1940baaa75e0,on_demand,8,1.4204,,
d2dcb520-2650-4412-bbf9-e0b4585f897b,reserved,86,12018.2823,2020-12-31 21:00:00+00:00,2021-01-30 18:00:00+00:00
271491ad-40b3-4a8a-b7fe-f5542b203789,spot,3,0.3744,,
273e95b6-cf5f-4bf0-a15f-9ca2f38bcb3d,on_demand,4,1.0315,,
d072758f-f6e4-4156-91c9-191d0422667a,reserved,4,859.0011,2021-01-01 06:00:00+00:00,2021-01-30 09:00:00+00:00
390c7193-4f59-4c38-b0ef-09b51d4ddc52,reserved,14,1391.1243,2020-12-31 06:00:00+00:00,2021-01-30 09:00:00+00:00
e70a42f9-fb1b-419a-9c27-c5cd9a370a78,spot,10,3.3769,,
251f9222-7fdb-4adf-93ed-762157b3639c,on_demand,4,0.8704,,
26afbcaa-c1a9-4cbe-ace2-46e81ef965c7,on_demand,19,7.3663,,
06cdbb7b-e590-45d4-b92f-7f6b4a7e688b,on_demand,4,1.4752,,
28834b6f-88aa-4b2c-adeb-b58317e55439,on_demand,7,1.3965,,
88811976-0364-4a83-9c2b-07801b294804,reserved,3,239.0169,2021-01-01 09:00:00+00:00,2021-01-30 04:00:00+00:00
f25b3851-4e8c-4888-b060-3a8b97eb5b03,reserved,15,1835.676,2020-12-31 14:00:00+00:00,2021-01-31 09:00:00+00:00
e8de9a11-43a8-49d9-a508-e22b6c81bb78,reserved,10,1961.5105,2020-12-31 06:00:00+00:00,2021-01-31 07:00:00+00:00
44861176-89ac-4c34-ba02-6e00bfd2ef5f,on_demand,8,2.9508,,
6dae437b-6da5-4298-96ca-26e9e9667224,reserved,13,2013.0516,2020-12-31 09:00:00+00:00,2021-01-30 03:00:00+00:00
fe0c7bfd-92cd-4b14-9c1b-f617eac85dd3,reserved,11,1712.0832,2020-12-31 20:00:00+00:00,2021-01-31 12:00:00+00:00
5bb84bf3-8d68-45be-ace3-c1572910185f,reserved,8,1333.6364,2020-12-31 01:00:00+00:00,2021-01-30 12:00:00+00:00
f0b7f0a3-81fe-43ae-ad86-10e946da2d3c,reserved,12,1934.3616,2020-12-31 15:00:00+00:00,2021-01-30 07:00:00+00:00
33df9046-3329-4953-a9bd-ade4b9b1d3c9,reserved,14,2933.3304,2021-01-01 01:00:00+00:00,2021-01-31 09:00:00+00:00
ec4cab8c-dc3a-461f-90c3-eeacdffce82e,spot,15,2.4611,,
24a1eb34-5a37-4263-9336-925f0fb5287e,on_demand,10,1.7794,,
c7831aec-c383-4211-9136-847ef08fb840,spot,11,2.0872,,
e9fcc44d-0f65-4756-a008-790f2ea4b8ee,spot,12,2.1573,,
d43804d9-670c-48b4-a827-87b1b626666c,on_demand,10,4.2682,,
0d9d0192-0709-4fa0-94c3-5ee834355279,on_demand,10,2.1011,,
00e59f03-3102-467e-a288-76ccbbc93326,reserved,5,536.536,2021-01-01 14:00:00+00:00,2021-01-31 22:00:00+00:00
0d6837c7-f29e-406d-8338-37487a852d52,spot,12,2.4157,,
f8443b0d-2d41-40f8-a026-5873c9183fff,on_demand,8,3.6848,,
c880a46b-c180-4f07-8af7-9466d0695c82,on_demand,6,2.5789,,
5a83ad67-392b-4b0a-8a09-ba92bac6d766,spot,4,0.9682,,
ad95f325-27af-43f6-966b-5ab53d97b8ef,reserved,9,1679.3263,2021-01-01 02:00:00+00:00,2021-01-31 13:00:00+00:00
aca3ca7e-7ded-44f5-bb36-1f11c29d2a82,on_demand,9,1.7974,,
d67f8ef8-3a67-4893-8d6f-056915b9cb79,reserved,7,1637.331,2020-12-31 10:00:00+00:00,2021-01-30 00:00:00+00:00
3a114cba-a030-423e-a9df-30229d4edffc,on_demand,3,1.5547,,
14c8d0ab-ac6d-43a1-a327-983ff72a8321,on_demand,5,1.6456,,
d50f2043-12a8-42d1-955a-6a350295b3a0,on_demand,6,1.3917,,
c3f7a50a-8ecc-4316-88a0-0157f07a3372,on_demand,7,2.1764,,
3da85ca8-c78f-4a3f-8e5f-d7a9029d4a29,spot,9,3.3069,,
6eae5e94-186c-49ce-b5e4-98ce5799e895,reserved,12,1041.35,2021-01-01 03:00:00+00:00,2021-01-30 13:00:00+00:00
38b7092a-7698-4c6f-8ba1-95bd365a7c11,on_demand,15,2.8347,,
0d928d39-8b89-420e-a4d5-2d67dafaa32e,on_demand,11,4.0679,,
3343fb78-05e3-44ad-a885-28b51cf30ebf,reserved,4,545.4556,2021-01-01 15:00:00+00:00,2021-01-31 01:00:00+00:00
23df5780-eef3-426b-b0b2-668eb4e1c986,reserved,10,1053.6396,2020-12-31 01:00:00+00:00,2021-01-31 11:00:00+00:00
93693ab1-d9d6-4f29-86a0-5a316ade8a62,reserved,2,196.6796,2021-01-01 17:00:00+00:00,2021-01-30 15:00:00+00:00
f6ecf418-eb5b-484e-9f0f-4aa606739ec0,reserved,3,344.394,2020-12-31 22:00:00+00:00,2021-01-31 00:00:00+00:00
63100c53-69af-4549-9c68-bef4ba682df2,spot,2,0.4201,,
db962c3c-8c8b-4ecf-9bae-751146556703,spot,15,3.3445,,
4b8c16da-67b4-4ba4-9dd3-9fa29544fd7d,reserved,12,1647.3172,2021-01-01 10:00:00+00:00,2021-01-31 14:00:00+00:00
2579666c-cd4f-4d37-8870-a1c660b2b37a,on_demand,13,2.7149,,
9dd80be4-7222-4aad-ab8f-880ca6b4ba33,reserved,116,14685.8327,2021-01-01 02:00:00+00:00,2021-01-31 03:00:00+00:00
22c697d0-777e-4133-bcf9-60c4b4bedf65,reserved,3,600.372,2021-01-01 17:00:00+00:00,2021-01-30 01:00:00+00:00
7980e0e8-d9a2-42d1-8ee3-a5568c141a26,reserved,5,396.5557,2021-01-01 13:00:00+00:00,2021-01-30 18:00:00+00:00
bf17aaeb-f83a-4e7e-80cd-4a21aef4bc97,spot,7,1.9526,,
731fb6d0-ee9c-4465-b7a5-029a612a5825,on_demand,38,18.9149,,
832e965a-fe8f-458b-87db-623d67b0e20d,on_demand,10,1.8713,,
bc499a98-6e13-45ea-a016-a4541c900251,spot,10,4.0734,,
01f977a9-ba8f-4806-b03d-1878c2d92cf6,on_demand,10,4.02,,
4d09a55d-de41-4670-b955-88853cf2b9af,on_demand,11,4.492,,
ff7a289a-202b-40ff-9e7d-c87da10d406d,spot,7,2.3957,,
5d6c706b-0cbf-47dd-ad2f-996e68d2f0d8,reserved,3,410.5056,2020-12-31 13:00:00+00:00,2021-01-31 01:00:00+00:00
36e22314-1143-45bd-9793-b4c95a9643f3,reserved,3,444.573,2021-01-01 04:00:00+00:00,2021-01-30 13:00:00+00:00
f1011b95-1480-4c5d-b684-096ed3f976fe,reserved,8,631.7696,2021-01-01 01:00:00+00:00,2021-01-30 09:00:00+00:00
f7a2e0be-afd5-478f-bf4c-301d0c5f242c,spot,1,0.4395,,
3c05d221-34b3-4971-8232-ad46242f005f,spot,15,4.9457,,
548238d9-63c6-4826-babf-5f7d8f3c1f3e,on_demand,11,1.9867,,
2fde4131-07d3-4695-9f7d-68e1c8dc2a8f,on_demand,11,3.9518,,
ade0f109-e5fa-4a2e-aa28-b14792df9805,spot,4,0.7221,,
b1dfe4df-471f-4736-b2d8-4d485e7ab74b,reserved,25,2175.2874,2021-01-01 02:00:00+00:00,2021-01-30 08:00:00+00:00
6de51e51-b213-490e-8838-bdb195aa359d,reserved,6,1198.6728,2020-12-31 10:00:00+00:00,2021-01-31 12:00:00+00:00
03904e38-89bb-4ec4-a9b3-4beaca55df82,reserved,8,1603.358,2021-01-01 02:00:00+00:00,2021-01-31 22:00:00+00:00
47b56a1e-f52a-4e64-8a83-c14632bb26f3,on_demand,10,3.7486,,
c3c9b7ed-1c32-4d30-b7f0-a271fbc8105a,on_demand,4,0.9386,,
6e8d2f43-16ec-489f-bf14-62e929e46647,spot,9,3.1718,,
5a6b17c3-d1f0-4b03-b944-ef6c70d9e605,on_demand,44,11.4257,,
6f263385-eb45-490f-aebe-9ce701c1c5fe,on_demand,10,2.4732,,
3f9bd00b-b768-44e0-af29-37ef90007cbc,on_demand,14,4.3276,,
2c30ed52-9ae1-47bc-a0a6-97a390957210,spot,15,3.8998,,
199126b2-9eb1-4390-94a9-862ac35db40f,on_demand,10,3.4533,,
db2e0569-cf25-45b6-80d0-5c56ded64801,reserved,12,1743.714,2020-12-31 23:00:00+00:00,2021-01-31 14:00:00+00:00
1faba1c5-c643-4bb0-850c-13c29ac2d080,on_demand,15,4.207,,
3f4aedb3-cc76-4c32-96c0-3e202161938b,spot,4,1.0404,,
4546d07a-c36b-431e-8dd6-7a74facbcfa0,on_demand,12,5.2238,,
57484cdb-764d-4296-bf41-98bb65aba8bd,spot,9,3.3392,,
ce704e24-aadc-4671-bd4d-9c7508523a27,reserved,7,1174.956,2021-01-01 03:00:00+00:00,2021-01-30 23:00:00+00:00
0d50ef80-4fc8-463e-9643-7a0baaf81341,reserved,13,1370.429,2020-12-31 20:00:00+00:00,2021-01-31 06:00:00+00:00
8aaa8f44-a9f9-449b-a265-6d10748504eb,on_demand,2,0.5804,,
7b18445c-0bd3-4034-aea2-e45e178f43c2,spot,15,3.5928,,
f3beebda-7d7d-4ea8-b135-72f5f7e0ed7c,reserved,6,991.7316,2020-12-31 09:00:00+00:00,2021-01-30 18:00:00+00:00
1bccbabd-d5cd-48f2-8456-6d4d7db609c3,reserved,2,384.7284,2020-12-31 08:00:00+00:00,2021-01-31 20:00:00+00:00
15db69ad-295a-40ba-96bc-7ab7f33cbe8e,spot,9,2.3315,,
baeed4d2-ed20-48d9-a803-680b470ed38e,reserved,12,1618.3032,2021-01-01 13:00:00+00:00,2021-01-31 09:00:00+00:00
0701cbd6-f085-4ea0-814b-f22f95503b64,reserved,11,2102.5563,2021-01-01 16:00:00+00:00,2021-01-31 19:00:00+00:00
d53f0b5e-702a-4ce4-95b7-2d01fda04313,reserved,9,1683.5225,2020-12-31 06:00:00+00:00,2021-01-30 11:00:00+00:00
effdcd57-9171-49c9-91d4-e6b4d336c7d8,on_demand,7,2.9949,,
356d03a5-6362-4bd0-a395-518aa34df469,reserved,5,811.156,2020-12-31 19:00:00+00:00,2021-01-31 20:00:00+00:00
0198714f-1e0a-47ac-956e-da5b7f01a363,on_demand,4,1.9371,,
c8281ce2-b55e-47e7-aa15-051cecd192f4,reserved,2,289.2418,2021-01-01 01:00:00+00:00,2021-01-31 14:00:00+00:00
55ed8654-51a0-498f-a6bb-1d7500603bb0,on_demand,10,2.5211,,
486604f6-278f-48db-aba1-0f8239203773,reserved,1,174.4088,2021-01-01 21:00:00+00:00,2021-01-31 02:00:00+00:00
f405b641-4f36-45ce-9c6b-9ea09933638a,spot,4,1.2656,,
265b930f-445f-4b24-9c61-100857faa0d8,spot,4,1.179,,
917f4eda-c8ee-4e39-b506-9a6e6dea77ae,reserved,8,1477.7763,2020-12-31 21:00:00+00:00,2021-01-31 18:00:00+00:00
95b95ad7-229b-455a-914a-14d7e4e15de7,reserved,6,606.3156,2020-12-31 13:00:00+00:00,2021-01-31 22:00:00+00:00
bc10c013-a1eb-473c-bae4-886ae25f9d4a,on_demand,6,2.4288,,
a8b77f82-1935-462f-988f-cdcd90394518,spot,93,27.3963,,
ec03b739-4d6d-48ed-9309-a1566bdfd03f,on_demand,8,3.4862,,
139a5668-c1c9-402f-af36-c45d3574511b,on_demand,7,3.2947,,
95b2bd33-44c2-44d7-8fdb-44230afa9eab,on_demand,3,1.4357,,
ecad8643-bb78-44ba-8e5e-914cf4542573,on_demand,10,1.908,,
aefce24d-aa83-4d4b-81fb-b50502538f59,spot,12,4.1082,,
23dcea22-bbf6-4e1d-bde5-62bacab59ddc,reserved,8,1901.2176,2020-12-31 07:00:00+00:00,2021-01-31 07:00:00+00:00
b316fd0b-f6f7-472f-87a3-5dccd5d61ef9,spot,4,0.3302,,
d3fb295b-97d7-4d2e-af7c-b8697bbbf4f8,on_demand,12,2.242,,
f9c64d6d-9eab-4c2d-b7d4-7dfa2141d559,on_demand,1,0.508,,
e2c40623-7da2-4342-9902-78852f7ec2a5,reserved,6,1127.3004,2021-01-01 15:00:00+00:00,2021-01-30 03:00:00+00:00
3f77c892-b695-44f0-9dd0-06e858274c53,spot,9,1.0891,,
885d6775-c05a-48fd-95d3-39164ea7dbd4,on_demand,3,1.3073,,
95934358-7c5f-4831-a85b-e30fcb982b91,spot,14,5.7678,,
2ce69fbe-df00-4a88-9d4f-881479937c9f,spot,15,3.6634,,
14a97e66-d5c0-4dd8-82f8-7505bedd7562,reserved,7,1328.9682,2021-01-01 10:00:00+00:00,2021-01-31 04:00:00+00:00
9a86a46a-7614-4eca-8961-68cfb677e7e2,on_demand,3,0.6467,,
3f69b67b-b336-40e2-9b6c-2d2cb7e39a16,spot,6,1.501,,
8f112e5b-1528-49bf-b8b4-130984c97723,reserved,12,1978.2726,2021-01-01 20:00:00+00:00,2021-01-31 23:00:00+00:00
48a845d3-807f-4c29-a404-06bb501c6954,spot,10,3.0743,,
673b677c-f084-45e7-81b0-9b17f8589de7,spot,5,1.347,,
3caffac2-f907-4cc2-aeff-deba5af46826,spot,15,4.002,,
f2bccd4a-c627-44fc-b054-7e615e945e4c,reserved,15,3373.3624,2020-12-31 10:00:00+00:00,2021-01-30 06:00:00+00:00
fb21c02c-cd97-4f43-bac0-f83f57c2b2ba,reserved,8,1179.3636,2020-12-31 10:00:00+00:00,2021-01-31 13:00:00+00:00
aa9a8a16-a4d6-4886-8082-10d48eb7c143,reserved,3,329.94,2021-01-01 20:00:00+00:00,2021-01-31 02:00:00+00:00
441acbd4-f115-4540-983b-be45b27ee1e6,spot,12,1.1878,,
9eb344a7-714a-4fcf-a21a-bae0b0977fe5,reserved,15,3892.9248,2020-12-31 04:00:00+00:00,2021-01-30 20:00:00+00:00
ca407be6-9d79-438c-ba10-653acdc6f6b0,on_demand,14,4.685,,
87fd6562-0ecf-4e09-a2d3-cc9348699481,reserved,14,1515.9744,2020-12-31 15:00:00+00:00,2021-01-31 15:00:00+00:00
75dab39e-ad27-405e-a82b-cc634d909c75,on_demand,2,1.0052,,
73f83f7d-4419-4597-9998-5041a38a30a5,on_demand,10,2.3042,,
b95bc9ab-e609-4d8c-a919-8e84ebf7b744,spot,5,1.1994,,
78aaa629-e806-47b7-9b98-f9734459062c,spot,104,41.2403,,
514e5157-4243-46f8-bab0-15c2b81b6073,spot,7,1.0219,,
1d4ccc20-39e9-4811-8c29-24622fe7e162,spot,9,0.4178,,
59f84a9d-dd67-4b94-99b4-4b3e7a078dd4,reserved,11,2302.165,2021-01-01 06:00:00+00:00,2021-01-31 11:00:00+00:00
94ca463e-1959-4355-9e4c-18a9cc5489f6,reserved,8,889.7517,2020-12-31 14:00:00+00:00,2021-01-31 17:00:00+00:00
d2822392-2ea1-470e-a077-ef2c3a9965a3,on_demand,5,1.9252,,
197463c6-e767-4a86-8685-fdccdc829bc5,spot,14,2.3957,,
49a7e3c8-4835-4268-927e-b3e4098ce919,on_demand,14,3.5471,,
baa5e441-0a3c-4eca-bb0c-b45f863b6796,on_demand,1,0.4102,,
d9314fd4-1828-4b35-be25-c6707653441f,on_demand,9,2.8975,,
9fb35862-6bef-4e8e-b262-f480fb8d4737,on_demand,10,1.7592,,
ade1cbb1-a4aa-44d3-bc0d-892d7245e0d0,spot,12,3.7455,,
0346dd5a-890a-44a9-b684-c78ff0d4f992,on_demand,7,2.5529,,
6f5b824f-8443-426f-b980-30a223bcfb91,on_demand,14,3.4587,,
294d935c-4f96-43e2-bab4-adfea94c0f39,on_demand,5,1.5435,,
91b16fb4-9141-4fc6-ab6e-9bf87f81f616,reserved,11,1491.4606,2020-12-31 16:00:00+00:00,2021-01-30 17:00:00+00:00
c8d83d31-938c-4ded-9504-6c2e48d6954c,on_demand,1,0.3569,,
2ae2b480-1d1b-4601-9620-9bdd77dc2b3d,spot,5,1.4534,,
089ab389-6db8-4651-bbf8-a092aa106500,spot,7,0.6841,,
858c92a2-aebe-407d-a658-40c843e2090c,spot,4,1.06,,
7feda6ac-7256-4cc2-b2af-78ef46fcb7ad,reserved,3,375.7675,2021-01-01 14:00:00+00:00,2021-01-31 19:00:00+00:00
7fc04f76-48bb-464d-8635-b8c3acb867a5,on_demand,12,2.4508,,
d1486ee8-7675-4150-8f2b-94e1684fce01,reserved,2,345.8655,2020-12-31 05:00:00+00:00,2021-01-31 16:00:00+00:00
4c780771-6861-4871-8502-cdf0764f6c6b,reserved,15,2716.35,2020-12-31 07:00:00+00:00,2021-01-31 13:00:00+00:00
1450771b-ec85-4751-a5ce-8dec86a27e97,reserved,7,1375.1075,2020-12-31 13:00:00+00:00,2021-01-30 18:00:00+00:00
e7fca1b6-3405-4e92-a800-fc4611bc695d,reserved,2,174.2656,2020-12-31 17:00:00+00:00,2021-01-31 19:00:00+00:00
69b82433-fdab-49ae-a323-2aef040b59cd,on_demand,9,3.2696,,
40e30e7a-4599-4290-8e89-7885189bbba6,spot,7,2.5413,,
3ea343a5-4dff-4226-a1b5-6b6b74e61374,reserved,14,2605.629,2021-01-02 00:00:00+00:00,2021-01-31 14:00:00+00:00
205a25a3-9a10-44a3-8b0b-a2c2689ef4b0,on_demand,1,0.2896,,
017e4de7-0549-49a8-89e1-d97a7c42227a,spot,4,0.6179,,
4fc8eceb-a26f-4b35-8034-6c284f0d6168,reserved,5,909.8962,2020-12-31 16:00:00+00:00,2021-01-31 18:00:00+00:00
93d50292-cb52-48c6-8f1e-f63487cb76d1,on_demand,22,10.7114,,
1aa41bc3-6c68-400f-9692-b3118abda903,spot,14,2.9493,,
e5e8d70f-73ef-4e6e-b048-da56ded21482,spot,26,7.8841,,
e8abb146-2fa4-4e02-b617-b9501a185c32,on_demand,1,0.2135,,
23d5987c-246d-4d31-92b9-8ae4b55c300b,on_demand,8,3.1202,,
d3137401-169c-4742-b620-9118a6d378a9,reserved,11,1013.0848,2021-01-01 09:00:00+00:00,2021-01-31 17:00:00+00:00
a3e0eaff-7efb-445b-8835-44be1993e72b,reserved,9,702.4941,2021-01-01 09:00:00+00:00,2021-01-30 06:00:00+00:00
7db05aa1-832f-4fea-868c-ce3322ac1ce4,spot,9,1.8144,,
c94660cb-fd79-4171-80f1-83adf4241d3a,on_demand,7,2.9028,,
af9b61ff-2457-4e09-92a3-5028d0c53261,on_demand,15,4.5565,,
e35dd9a1-a4d6-4eea-9c59-23363b74731d,spot,7,1.3673,,
504c4dd9-e721-42f3-ba69-60011bfc5df2,on_demand,8,1.8184,,
3a2dc48d-df6b-4679-8146-42ee94b748ff,spot,9,2.123,,
15ea30e7-3773-469f-bfe7-026efbc866e7,reserved,4,651.2874,2021-01-01 10:00:00+00:00,2021-01-30 23:00:00+00:00
0a6bc5ed-e147-4ace-9f5b-66c95688c483,reserved,7,1749.8078,2020-12-31 03:00:00+00:00,2021-01-31 13:00:00+00:00
c1e1fcab-6920-429e-907b-02ae213bad60,spot,4,0.8136,,
9290badd-bd95-4a96-ba18-89a7f40646cc,spot,3,1.0757,,
58c10acd-3311-4bc6-b900-10e6845cdac7,on_demand,4,1.3412,,
fe8163c2-081e-4415-9391-94a5b8a9d06f,on_demand,3,1.299,,
0e054951-8c18-4cf4-b83a-4893356137d9,reserved,10,1578.924,2021-01-01 21:00:00+00:00,2021-01-31 20:00:00+00:00
916633e8-c351-4a3a-8a5a-06fc933c0847,spot,15,4.6567,,
503ad524-71dd-4b01-81ab-77d25c47985a,on_demand,7,2.9912,,
2b3fc38e-7db0-46bf-9c15-11cae8bf8a3c,reserved,10,1430.6031,2021-01-01 13:00:00+00:00,2021-01-31 04:00:00+00:00
757b6808-c66e-4b6f-aa7a-d6b4998f9378,spot,3,0.9755,,
90164170-bf4f-49b6-9332-694ab447c616,spot,15,5.5583,,
d4e1f178-203d-4e9b-ba1c-9da75473d4c8,on_demand,11,2.7423,,
1f2b663b-432f-4856-aac4-7f9d54781c01,spot,3,0.5224,,
932e9711-34f3-4d58-abf8-5b07162461b6,on_demand,14,6.2446,,
d5765dcb-a7b7-4b0d-89a8-e49df0a39ba7,reserved,13,1228.3928,2021-01-01 16:00:00+00:00,2021-01-30 17:00:00+00:00
0f94b272-651e-4a7a-b0a1-206990457ee2,reserved,9,1676.6126,2021-01-01 08:00:00+00:00,2021-01-30 01:00:00+00:00
